{
  "Objects": [
    {
      "CompList": [
        "GameModel",
        "Security",
        "Collider",
        "ModelBoneController",
        "Animator",
        "Transform"
      ],
      "GameModel": {
        "ModelFileName": "data/Model/Monitor/Monitor.xed",
        "Character": false,
        "SemiTransparent": false,
        "BaseFrustumOut": false,
        "NoneShadowRender": false
      },
      "Security": {
        "Gage": 0
      },
      "Collider": {
        "ModelFileName": "data/Model/Monitor/Monitor.xed",
        "HitGroups": [ 0, 1, 2, 6 ]
      },
      "ModelBoneController": {

      },
      "Animator": {
        "Enable": false,
        "InitAnimeLoop": false,
        "InitAnimeName": "Lifted"
      },
      "Transform": {
        "Position": [ 0, 0.7, 1 ],
        "Rotation": [ 0, 0, 0 ],
        "Scaling": [ 0.7,0.7,0.7 ]
      }
    }
  ]
}
